[
  {
    "id": "293",
    "customer_id": "76",
    "plan_id": "166",
    "status": "active",
    "order_id": null,
    "product_id": null,
    "subscription_id": null,
    "date_created": "2020-06-05T22:55:53",
    "date_created_gmt": "2020-06-05T13:55:53",
    "start_date": "2020-06-06T09:00:00",
    "start_date_gmt": "2020-06-06T00:00:00",
    "end_date": null,
    "end_date_gmt": null,
    "paused_date": null,
    "paused_date_gmt": null,
    "cancelled_date": null,
    "cancelled_date_gmt": null,
    "view_url": "https://example.org/my-account/166/my-membership-content/"
  },
  {
    "id": "289",
    "customer_id": "72",
    "plan_id": "166",
    "status": "active",
    "order_id": null,
    "product_id": null,
    "subscription_id": null,
    "date_created": "2020-06-05T22:55:52",
    "date_created_gmt": "2020-06-05T13:55:52",
    "start_date": "2020-06-06T09:00:00",
    "start_date_gmt": "2020-06-06T00:00:00",
    "end_date": null,
    "end_date_gmt": null,
    "paused_date": null,
    "paused_date_gmt": null,
    "cancelled_date": null,
    "cancelled_date_gmt": null,
    "view_url": "https://example.org/my-account/166/my-membership-content/"
  }
]